<?xml version="1.0" encoding="utf-8"?>
<!-- Generator: Adobe Illustrator 22.0.1, SVG Export Plug-In . SVG Version: 6.00 Build 0)  -->
<svg version="1.1" id="Layer_1" xmlns="http://www.w3.org/2000/svg" xmlns:xlink="http://www.w3.org/1999/xlink" x="0px" y="0px"
	 viewBox="0 0 26 26" style="enable-background:new 0 0 26 26;" xml:space="preserve">
<style type="text/css">
	.st0{clip-path:url(#SVGID_2_);}
	.st1{filter:url(#Adobe_OpacityMaskFilter);}
	.st2{fill:#FFFFFF;}
	.st3{mask:url(#d_5_);fill:url(#SVGID_3_);}
	.st4{filter:url(#Adobe_OpacityMaskFilter_1_);}
	.st5{opacity:0.138;mask:url(#d_4_);fill:#FFFFFF;enable-background:new    ;}
	.st6{filter:url(#Adobe_OpacityMaskFilter_2_);}
	.st7{opacity:0.138;mask:url(#d_3_);fill:#FFFFFF;enable-background:new    ;}
	.st8{filter:url(#Adobe_OpacityMaskFilter_3_);}
	.st9{opacity:0.138;mask:url(#d_2_);fill:#FFFFFF;enable-background:new    ;}
	.st10{filter:url(#Adobe_OpacityMaskFilter_4_);}
	.st11{mask:url(#d_1_);}
</style>
<g>
	<defs>
		<path id="SVGID_1_" d="M21.2,25H4.8C2.7,25,1,23.3,1,21.2V4.8C1,2.7,2.7,1,4.8,1h16.3C23.3,1,25,2.7,25,4.8v16.3
			C25,23.3,23.3,25,21.2,25z"/>
	</defs>
	<clipPath id="SVGID_2_">
		<use xlink:href="#SVGID_1_"  style="overflow:visible;"/>
	</clipPath>
	<g transform="translate(1)" class="st0">
		<defs>
			<filter id="Adobe_OpacityMaskFilter" filterUnits="userSpaceOnUse" x="-3.9" y="-8.1" width="29.4" height="36.9">
				<feColorMatrix  type="matrix" values="1 0 0 0 0  0 1 0 0 0  0 0 1 0 0  0 0 0 1 0"/>
			</filter>
		</defs>
		<mask maskUnits="userSpaceOnUse" x="-3.9" y="-8.1" width="29.4" height="36.9" id="d_5_">
			<g class="st1">
				<path id="a_5_" class="st2" d="M4.1,0.9h16c2.2,0,4,1.8,4,4v16c0,2.2-1.8,4-4,4h-16c-2.2,0-4-1.8-4-4v-16
					C0.1,2.7,1.9,0.9,4.1,0.9z"/>
			</g>
		</mask>
		
			<linearGradient id="SVGID_3_" gradientUnits="userSpaceOnUse" x1="-1918.9612" y1="1108.8876" x2="-1918.9612" y2="1107.8876" gradientTransform="matrix(29.4072 0 0 -36.9242 56442.0234 40936.6133)">
			<stop  offset="0" style="stop-color:#1B64F7"/>
			<stop  offset="1" style="stop-color:#084CF0"/>
		</linearGradient>
		<path class="st3" d="M-3.3,26.8c1.5-0.8,5.7-2.7,10.4-1.1s7.6,4,10.8,2.9c3.2-1.2,6.6-3.8,7.3-7.8c0.5-2.6,0.5-12.3,0.2-28.8
			L-2.1-2.6C-3.9,17.5-4.3,27.3-3.3,26.8z"/>
		<defs>
			<filter id="Adobe_OpacityMaskFilter_1_" filterUnits="userSpaceOnUse" x="-0.9" y="-8.1" width="27" height="30.2">
				<feColorMatrix  type="matrix" values="1 0 0 0 0  0 1 0 0 0  0 0 1 0 0  0 0 0 1 0"/>
			</filter>
		</defs>
		<mask maskUnits="userSpaceOnUse" x="-0.9" y="-8.1" width="27" height="30.2" id="d_4_">
			<g class="st4">
				<path id="a_4_" class="st2" d="M4.1,0.9h16c2.2,0,4,1.8,4,4v16c0,2.2-1.8,4-4,4h-16c-2.2,0-4-1.8-4-4v-16
					C0.1,2.7,1.9,0.9,4.1,0.9z"/>
			</g>
		</mask>
		<path class="st5" d="M-0.4,21.9c1.5-2.2,2.9-4.4,7.6-5.3c4.7-0.9,7,0.9,9.2,0.9s5.8-0.5,8.2-6c1.6-3.7,1.9-10.2,1.1-19.6H1.2
			C-0.9,13.4-1.4,23.4-0.4,21.9z"/>
		<defs>
			<filter id="Adobe_OpacityMaskFilter_2_" filterUnits="userSpaceOnUse" x="-0.9" y="-6.5" width="26.2" height="30.7">
				<feColorMatrix  type="matrix" values="1 0 0 0 0  0 1 0 0 0  0 0 1 0 0  0 0 0 1 0"/>
			</filter>
		</defs>
		<mask maskUnits="userSpaceOnUse" x="-0.9" y="-6.5" width="26.2" height="30.7" id="d_3_">
			<g class="st6">
				<path id="a_8_" class="st2" d="M4.1,0.9h16c2.2,0,4,1.8,4,4v16c0,2.2-1.8,4-4,4h-16c-2.2,0-4-1.8-4-4v-16
					C0.1,2.7,1.9,0.9,4.1,0.9z"/>
			</g>
		</mask>
		<path class="st7" d="M-0.8,24c0.4-2.1,2-6.6,4.9-8.9s5.8-3.1,10-3.5s7.9-1.5,9.9-6.6c1.3-3.4,1.5-7,0.6-10.8L6.4-6.5L0.1-3.8
			C-0.8,16.1-1,25.4-0.8,24z"/>
		<defs>
			<filter id="Adobe_OpacityMaskFilter_3_" filterUnits="userSpaceOnUse" x="-2.7" y="-3.3" width="13.7" height="21.9">
				<feColorMatrix  type="matrix" values="1 0 0 0 0  0 1 0 0 0  0 0 1 0 0  0 0 0 1 0"/>
			</filter>
		</defs>
		<mask maskUnits="userSpaceOnUse" x="-2.7" y="-3.3" width="13.7" height="21.9" id="d_2_">
			<g class="st8">
				<path id="a_3_" class="st2" d="M4.1,0.9h16c2.2,0,4,1.8,4,4v16c0,2.2-1.8,4-4,4h-16c-2.2,0-4-1.8-4-4v-16
					C0.1,2.7,1.9,0.9,4.1,0.9z"/>
			</g>
		</mask>
		<path class="st9" d="M-0.8,18.1c2-4,4.3-6.8,6.2-7.7s4.7-2.9,5.2-5.2s0.7-6.1-0.5-7.4C9.2-3.1,5-3.4-2.7-3.2
			C-2.7,13.6-2.1,20.7-0.8,18.1z"/>
		<defs>
			<filter id="Adobe_OpacityMaskFilter_4_" filterUnits="userSpaceOnUse" x="5.1" y="8.9" width="14.4" height="9">
				<feColorMatrix  type="matrix" values="1 0 0 0 0  0 1 0 0 0  0 0 1 0 0  0 0 0 1 0"/>
			</filter>
		</defs>
		<mask maskUnits="userSpaceOnUse" x="5.1" y="8.9" width="14.4" height="9" id="d_1_">
			<g class="st10">
				<path id="a_2_" class="st2" d="M4.1,0.9h16c2.2,0,4,1.8,4,4v16c0,2.2-1.8,4-4,4h-16c-2.2,0-4-1.8-4-4v-16
					C0.1,2.7,1.9,0.9,4.1,0.9z"/>
			</g>
		</mask>
		<g class="st11">
			<g>
				<path id="f_2_" class="st2" d="M14.3,10.4h3.8V9.3h-3.8V10.4L14.3,10.4z M15.2,12.8c-0.2,0.2-0.4,0.6-0.5,1h3
					c0-0.5-0.2-0.8-0.5-1c-0.3-0.2-0.6-0.3-1-0.3C15.8,12.4,15.5,12.5,15.2,12.8L15.2,12.8L15.2,12.8z M17.8,11.3
					c0.5,0.2,0.8,0.5,1.1,1c0.3,0.4,0.4,0.8,0.5,1.3c0,0.3,0.1,0.7,0.1,1.3h-4.8c0,0.7,0.3,1.1,0.7,1.4c0.3,0.2,0.6,0.2,0.9,0.2
					c0.4,0,0.7-0.1,1-0.3c0.1-0.1,0.3-0.3,0.4-0.4h1.8c0,0.4-0.3,0.8-0.6,1.2c-0.6,0.6-1.4,0.9-2.5,0.9c-0.9,0-1.6-0.3-2.3-0.8
					c-0.7-0.5-1-1.4-1-2.6c0-1.1,0.3-2,0.9-2.6c0.6-0.6,1.4-0.9,2.4-0.9C16.8,11,17.3,11.1,17.8,11.3L17.8,11.3L17.8,11.3z
					 M6.9,13.8v2.3h2.2c0.4,0,0.7-0.1,0.9-0.2c0.4-0.2,0.6-0.6,0.6-1.1c0-0.5-0.2-0.8-0.6-0.9c-0.2-0.1-0.5-0.1-0.9-0.1H6.9
					L6.9,13.8z M6.9,10.4v1.9h2.2c0.4,0,0.7-0.1,0.9-0.2c0.2-0.1,0.4-0.4,0.4-0.8c0-0.4-0.2-0.7-0.5-0.8c-0.3-0.1-0.6-0.1-1.1-0.1
					H6.9L6.9,10.4z M11.7,9.8c0.3,0.4,0.4,0.8,0.4,1.3c0,0.5-0.1,1-0.4,1.3c-0.2,0.2-0.4,0.3-0.7,0.5c0.5,0.2,0.8,0.4,1,0.8
					c0.2,0.4,0.3,0.8,0.3,1.3c0,0.5-0.1,1-0.4,1.4c-0.2,0.3-0.4,0.5-0.6,0.7c-0.3,0.2-0.6,0.4-1,0.4c-0.4,0.1-0.8,0.1-1.3,0.1h-4
					V8.9h4.3C10.5,8.9,11.3,9.2,11.7,9.8L11.7,9.8L11.7,9.8z"/>
			</g>
		</g>
	</g>
</g>
</svg>
