<?xml version="1.0" encoding="utf-8"?>
<!-- Generator: Adobe Illustrator 22.0.1, SVG Export Plug-In . SVG Version: 6.00 Build 0)  -->
<svg version="1.1" id="Layer_1" xmlns="http://www.w3.org/2000/svg" xmlns:xlink="http://www.w3.org/1999/xlink" x="0px" y="0px"
	 viewBox="0 0 26 26" style="enable-background:new 0 0 26 26;" xml:space="preserve">
<style type="text/css">
	.st0{clip-path:url(#SVGID_2_);}
	.st1{filter:url(#Adobe_OpacityMaskFilter);}
	.st2{fill:#FFFFFF;}
	.st3{mask:url(#d_10_);fill:url(#SVGID_3_);}
	.st4{filter:url(#Adobe_OpacityMaskFilter_1_);}
	.st5{opacity:0.138;mask:url(#d_9_);fill:#FFFFFF;enable-background:new    ;}
	.st6{filter:url(#Adobe_OpacityMaskFilter_2_);}
	.st7{opacity:0.138;mask:url(#d_8_);fill:#FFFFFF;enable-background:new    ;}
	.st8{filter:url(#Adobe_OpacityMaskFilter_3_);}
	.st9{opacity:0.138;mask:url(#d_7_);fill:#FFFFFF;enable-background:new    ;}
	.st10{filter:url(#Adobe_OpacityMaskFilter_4_);}
	.st11{mask:url(#d_6_);}
</style>
<g>
	<defs>
		<path id="SVGID_1_" d="M21.2,25H4.8C2.7,25,1,23.3,1,21.2V4.8C1,2.7,2.7,1,4.8,1h16.3C23.3,1,25,2.7,25,4.8v16.3
			C25,23.3,23.3,25,21.2,25z"/>
	</defs>
	<clipPath id="SVGID_2_">
		<use xlink:href="#SVGID_1_"  style="overflow:visible;"/>
	</clipPath>
	<g transform="translate(1)" class="st0">
		<defs>
			<filter id="Adobe_OpacityMaskFilter" filterUnits="userSpaceOnUse" x="-1.4" y="-6.1" width="27.4" height="35">
				<feColorMatrix  type="matrix" values="1 0 0 0 0  0 1 0 0 0  0 0 1 0 0  0 0 0 1 0"/>
			</filter>
		</defs>
		<mask maskUnits="userSpaceOnUse" x="-1.4" y="-6.1" width="27.4" height="35" id="d_10_">
			<g class="st1">
				<path id="a_12_" class="st2" d="M4,0.9h16c2.2,0,4,1.8,4,4v16c0,2.2-1.8,4-4,4H4c-2.2,0-4-1.8-4-4v-16C0,2.7,1.8,0.9,4,0.9z"/>
			</g>
		</mask>
		
			<linearGradient id="SVGID_3_" gradientUnits="userSpaceOnUse" x1="-1914.0354" y1="1107.2305" x2="-1914.0354" y2="1106.2604" gradientTransform="matrix(27.4072 0 0 -35 52470.6211 38747)">
			<stop  offset="0" style="stop-color:#35A9FC"/>
			<stop  offset="1" style="stop-color:#127CB3"/>
		</linearGradient>
		<path class="st3" d="M-0.8,27c1.4-0.8,5.3-2.5,9.7-1.1c4.4,1.5,7.1,3.8,10.1,2.7c3-1.1,6.2-3.6,6.8-7.4c0.4-2.5,0.5-11.6,0.2-27.3
			L0.3-0.8C-1.4,18.2-1.8,27.5-0.8,27z"/>
		<defs>
			<filter id="Adobe_OpacityMaskFilter_1_" filterUnits="userSpaceOnUse" x="-1" y="-8.1" width="27" height="30.2">
				<feColorMatrix  type="matrix" values="1 0 0 0 0  0 1 0 0 0  0 0 1 0 0  0 0 0 1 0"/>
			</filter>
		</defs>
		<mask maskUnits="userSpaceOnUse" x="-1" y="-8.1" width="27" height="30.2" id="d_9_">
			<g class="st4">
				<path id="a_11_" class="st2" d="M4,0.9h16c2.2,0,4,1.8,4,4v16c0,2.2-1.8,4-4,4H4c-2.2,0-4-1.8-4-4v-16C0,2.7,1.8,0.9,4,0.9z"/>
			</g>
		</mask>
		<path class="st5" d="M-0.4,22c1.5-2.2,2.9-4.4,7.6-5.3c4.7-0.9,7,0.9,9.2,0.9s5.8-0.5,8.2-6c1.6-3.7,1.9-10.2,1.1-19.6H1.1
			C-0.9,13.4-1.5,23.5-0.4,22z"/>
		<defs>
			<filter id="Adobe_OpacityMaskFilter_2_" filterUnits="userSpaceOnUse" x="-1" y="-6.5" width="26.2" height="30.7">
				<feColorMatrix  type="matrix" values="1 0 0 0 0  0 1 0 0 0  0 0 1 0 0  0 0 0 1 0"/>
			</filter>
		</defs>
		<mask maskUnits="userSpaceOnUse" x="-1" y="-6.5" width="26.2" height="30.7" id="d_8_">
			<g class="st6">
				<path id="a_10_" class="st2" d="M4,0.9h16c2.2,0,4,1.8,4,4v16c0,2.2-1.8,4-4,4H4c-2.2,0-4-1.8-4-4v-16C0,2.7,1.8,0.9,4,0.9z"/>
			</g>
		</mask>
		<path class="st7" d="M-0.9,24.1c0.4-2.1,2-6.6,4.9-8.9s5.8-3.1,10-3.5S22,10.2,24,5.1c1.3-3.4,1.5-7,0.6-10.8L6.4-6.5L0-3.7
			C-0.8,16.2-1.1,25.5-0.9,24.1z"/>
		<defs>
			<filter id="Adobe_OpacityMaskFilter_3_" filterUnits="userSpaceOnUse" x="-2.8" y="-3.2" width="13.7" height="21.9">
				<feColorMatrix  type="matrix" values="1 0 0 0 0  0 1 0 0 0  0 0 1 0 0  0 0 0 1 0"/>
			</filter>
		</defs>
		<mask maskUnits="userSpaceOnUse" x="-2.8" y="-3.2" width="13.7" height="21.9" id="d_7_">
			<g class="st8">
				<path id="a_9_" class="st2" d="M4,0.9h16c2.2,0,4,1.8,4,4v16c0,2.2-1.8,4-4,4H4c-2.2,0-4-1.8-4-4v-16C0,2.7,1.8,0.9,4,0.9z"/>
			</g>
		</mask>
		<path class="st9" d="M-0.9,18.2c2-4,4.3-6.8,6.2-7.7s4.7-2.9,5.2-5.2s0.7-6.1-0.5-7.4c-0.8-0.9-5.1-1.2-12.8-1
			C-2.8,13.7-2.2,20.8-0.9,18.2z"/>
		<defs>
			<filter id="Adobe_OpacityMaskFilter_4_" filterUnits="userSpaceOnUse" x="7" y="6.9" width="11" height="11">
				<feColorMatrix  type="matrix" values="1 0 0 0 0  0 1 0 0 0  0 0 1 0 0  0 0 0 1 0"/>
			</filter>
		</defs>
		<mask maskUnits="userSpaceOnUse" x="7" y="6.9" width="11" height="11" id="d_6_">
			<g class="st10">
				<path id="a_1_" class="st2" d="M4,0.9h16c2.2,0,4,1.8,4,4v16c0,2.2-1.8,4-4,4H4c-2.2,0-4-1.8-4-4v-16C0,2.7,1.8,0.9,4,0.9z"/>
			</g>
		</mask>
		<g class="st11">
			<g>
				<path id="f_1_" class="st2" d="M9.5,17.9H7.2v-7.3h2.3V17.9z M8.4,9.6C7.7,9.6,7,9,7,8.3c0-0.7,0.6-1.3,1.3-1.3
					c0.7,0,1.3,0.6,1.3,1.3S9.1,9.6,8.4,9.6z M18,17.9h-2.2v-3.5c0-0.9,0-1.9-1.2-1.9s-1.3,0.9-1.3,1.9v3.6H11v-7.3h2.1v1h0
					c0.3-0.6,1.1-1.2,2.2-1.2c2.3,0,2.7,1.5,2.7,3.5V17.9z"/>
			</g>
		</g>
	</g>
</g>
</svg>
